…
# Full dataset
all_data <- get_cspp_data()
```

## Finding Variables

Given the large number of variables in the data, we provide additional
functionality within `get_var_info` to search for variables based on
strings or categories. For instance, the following searches for `pop`
and `femal` within the variable name, returning 31 variables:

``` r
# Search for variables by name
get_var_info(var_names = c("pop","femal"))
#> # A tibble: 31 x 6
#>    variable  years   short_desc      long_desc          sources         category
#>    <chr>     <chr>   <chr>           <chr>              <chr>           <chr>   
#>  1 poptotal  1900-2~ Population tot~ Total population ~ "U.S. Census B~ demogra~
#>  2 popdensi~ 1975-1~ Population den~ Number of people ~ "http://www.ip~ demogra~
#>  3 popfemale 1994-2~ Female populat~ The number of res~ "CQ Press. 'St~ demogra~
#>  4 pctpopfe~ 2012-2~ Female populat~ Percentage of the~ "U.S. Census B~ demogra~
#>  5 popmale   1994-2~ Male population The number of res~ "CQ Press. 'St~ demogra~
#>  6 pctpopma~ 2012-2~ Male populatio~ Percentage of the~ "U.S. Census B~ demogra~
#>  7 popunder5 1994-2~ Population und~ The number of res~ "CQ Press. 'St~ demogra~
#>  8 pctpopun~ 2013-2~ Population und~ Percentage of the~ "U.S. Census B~ demogra~
#>  9 pop5to17  1994-2~ Population fro~ The number of res~ "CQ Press. 'St~ demogra~
#> 10 pop18to24 1994-2~ Population fro~ The number of res~ "CQ Press. 'St~ demogra~
#> # ... with 21 more rows
```

A similar line of code using the `related_to` parameter, instead of
`var_name`, searches within the name **and** the description fields,
returning 96 results:

``` r
# Search by name and description:
get_var_info(related_to = c("pop", "femal"))
#> # A tibble: 96 x 6
#>    variable  years   short_desc      long_desc          sources         category
#>    <chr>     <chr>   <chr>           <chr>              <chr>           <chr>   
#>  1 poptotal  1900-2~ Population tot~ Total population ~ "U.S. Census B~ demogra~
#>  2 popdensi~ 1975-1~ Population den~ Number of people ~ "http://www.ip~ demogra~
#>  3 popfemale 1994-2~ Female populat~ The number of res~ "CQ Press. 'St~ demogra~
#>  4 pctpopfe~ 2012-2~ Female populat~ Percentage of the~ "U.S. Census B~ demogra~
#>  5 popmale   1994-2~ Male population The number of res~ "CQ Press. 'St~ demogra~
#>  6 pctpopma~ 2012-2~ Male populatio~ Percentage of the~ "U.S. Census B~ demogra~
#>  7 popunder5 1994-2~ Population und~ The number of res~ "CQ Press. 'St~ demogra~
#>  8 pctpopun~ 2013-2~ Population und~ Percentage of the~ "U.S. Census B~ demogra~
#>  9 pop5to17  1994-2~ Population fro~ The number of res~ "CQ Press. 'St~ demogra~
#> 10 pop18to24 1994-2~ Population fro~ The number of res~ "CQ Press. 'St~ demogra~
#> # ... with 86 more rows
```
…
